{
  "/Users/michael/src/phx/dynt-api/assetsapp.css": "/Users/michael/src/phx/dynt-api/assetscss/app.css",
  "/Users/michael/src/phx/dynt-api/assetsapp.js": "/Users/michael/src/phx/dynt-api/assetsjs/app.js"
}